{
  "studyUnit": "學習",
  "testUnit": "模擬試題",
  "chooseUnit": "請選擇一個單元",
  "statusError": "我看不懂這個指令，請輸入1 --> 課程大綱、輸入2 --> 閱讀單元、輸入3 --> 模擬試題",
  "errorRetryFindUnit": "錯誤第flag次 \n 查無此單元或是你需入不正確的格式，請輸入半型純數字的，例如:20，最大不超過100\n\n錯誤超過三次會自動離開，或是可輸入exit直接離開",
  "exit": "返回最初選單\n輸入1 --> 課程大綱\n輸入2 --> 閱讀單元\n輸入3 --> 模擬試題"
}
